[gd_scene load_steps=6 format=2]

[ext_resource path="res://Pad/Pad_bg.png" type="Texture" id=1]
[ext_resource path="res://Pad/Pad_fg.png" type="Texture" id=2]
[ext_resource path="res://Pad/Pad.gd" type="Script" id=3]
[ext_resource path="res://Pad/move.png" type="Texture" id=4]

[sub_resource type="CircleShape2D" id=1]
radius = 84.8162

[node name="Pad" type="Area2D"]
script = ExtResource( 3 )

[node name="Pad_bg" type="Sprite" parent="."]
texture = ExtResource( 1 )

[node name="move" type="Sprite" parent="."]
self_modulate = Color( 0.886275, 0.0509804, 0.0509804, 0.701961 )
scale = Vector2( 0.5, 0.5 )
texture = ExtResource( 4 )

[node name="Pad_fg" type="Sprite" parent="."]
texture = ExtResource( 2 )

[node name="CollisionShape2D" type="CollisionShape2D" parent="."]
visible = false
shape = SubResource( 1 )

[node name="Icon" type="Sprite" parent="."]
[connection signal="input_event" from="." to="." method="_on_Pad_input_event"]
